Investigating book reviews of the Data Feminism book
…
2c. Tidy Text format

Next, we will tidy our text using the tidytext and dplyr packages to split the text into tokens creating a table with one token per row. The token is under a column called word(). Another step to tidy the text is to remove the most common stop words such as a, the, is, are, and, etc. As mentioned previously, “art” is commonly connected to Canvas; therefore, we need to filter out “art.” We will take another look at the head of our tokenized text.

#tokenize review words and keep all columns
review_tidy<- df_reviews %>%
  unnest_tokens(word, review) %>%
  anti_join(stop_words)%>%
  select(name, everything()) %>%
  unite(review, site, index)
review_tidy

# A tibble: 12,441 × 5
   name    review       year         book          word          
   <chr>   <chr>        <chr>        <chr>         <chr>         
 1 Sanjida Good Reads_1 Jan 08, 2021 data feminism thinking      
 2 Sanjida Good Reads_1 Jan 08, 2021 data feminism data          
 3 Sanjida Good Reads_1 Jan 08, 2021 data feminism science       
 4 Sanjida Good Reads_1 Jan 08, 2021 data feminism data          
 5 Sanjida Good Reads_1 Jan 08, 2021 data feminism ethics        
 6 Sanjida Good Reads_1 Jan 08, 2021 data feminism informed      
 7 Sanjida Good Reads_1 Jan 08, 2021 data feminism ideas         
 8 Sanjida Good Reads_1 Jan 08, 2021 data feminism intersectional
 9 Sanjida Good Reads_1 Jan 08, 2021 data feminism feminism.today
10 Sanjida Good Reads_1 Jan 08, 2021 data feminism data          
# … with 12,431 more rows
…
4f. Biterm model for short sentence documents

Finally, let’s look at a biterm model

Take original data frame and change column names to be fed correctly

btm <- df_reviews%>%
  rename(text = "review",
         doc_id = "index")

btm

# A tibble: 134 × 6
   doc_id name            year         text                          site  book 
    <int> <chr>           <chr>        <chr>                         <chr> <chr>
 1      1 Sanjida         Jan 08, 2021 "A new way of thinking about… Good… data…
 2      2 Harsh           Nov 05, 2020 "The authors of this book wa… Good… data…
 3      3 Nikki Sojkowski Oct 16, 2020 "Let me begin this review by… Good… data…
 4      4 Clàudia         Jun 02, 2020 "This is a fantastic introdu… Good… data…
 5      5 Jill            May 10, 2021 "4.5* stars but rounding to … Good… data…
 6      6 Paz             Sep 14, 2020 "This is a great read, overa… Good… data…
 7      7 Casey           Nov 25, 2020 "This book ignores the ideol… Good… data…
 8      8 Leonardo Longo  Mar 28, 2022 "A book called \"Data Femini… Good… data…
 9      9 Ed Summers      Dec 14, 2020 "Catherine D'Ignazio and Lau… Good… data…
10     10 Mengyuan Zhang  Apr 08, 2021 "I used this book as a textb… Good… data…
# … with 124 more rows
…
